@startuml ejercicio1
class Persona{
    + nombre : string
    + apellidos: string
    + numeroDocumentoIdentidad : string
    + añoNacimiento: int
    + paisNacimiento : string 
    + genero: string

    + constructor(nombre: string ,apellidos: string,numeroDocumentoIdentidad: string,añoNacimiento:int,paisNacimiento:string, genero:string  )
    + imprimir():string
}
@enduml